code/UART/isim.log
ISim log file
Running: /home/ise/code/UART/uart_rx_test_isim_beh.exe -intstyle ise -gui -tclbatch isim.cmd -wdb /home/ise/code/UART/uart_rx_test_isim_beh.wdb 
ISim P.20131013 (signature 0xfbc00daa)
----------------------------------------------------------------------
WARNING:Security:42 - Your software subscription period has lapsed. Your current version of Xilinx tools will continue to function, but you no longer qualify for Xilinx software updates or new releases.


----------------------------------------------------------------------
This is a Full version of ISim.
Time resolution is 1 ps
# onerror resume
# wave add /
# run 1000 ns
Simulator is doing circuit initialization process.
Finished circuit initialization process.
Time=0, rx=1, state=00, b_reg=00000000, dout=00000000, rx_done_tick=0
# run all
Time=52183, rx=0, state=00, b_reg=00000000, dout=00000000, rx_done_tick=0
Time=52190, rx=0, state=01, b_reg=00000000, dout=00000000, rx_done_tick=0
Time=53850, rx=0, state=10, b_reg=00000000, dout=00000000, rx_done_tick=0
Time=58030, rx=0, state=11, b_reg=00000000, dout=00000000, rx_done_tick=0
Time=58330, rx=0, state=11, b_reg=00000000, dout=00000000, rx_done_tick=1
Time=58350, rx=0, state=00, b_reg=00000000, dout=00000000, rx_done_tick=0
Time=58370, rx=0, state=01, b_reg=00000000, dout=00000000, rx_done_tick=0
Time=58530, rx=0, state=10, b_reg=00000000, dout=00000000, rx_done_tick=0
Time=64370, rx=0, state=11, b_reg=00000000, dout=00000000, rx_done_tick=0
Time=64670, rx=0, state=11, b_reg=00000000, dout=00000000, rx_done_tick=1
Time=64690, rx=0, state=00, b_reg=00000000, dout=00000000, rx_done_tick=0
Time=64710, rx=0, state=01, b_reg=00000000, dout=00000000, rx_done_tick=0
Time=64870, rx=0, state=10, b_reg=00000000, dout=00000000, rx_done_tick=0
Time=70670, rx=0, state=11, b_reg=00000000, dout=00000000, rx_done_tick=0
Time=70970, rx=0, state=11, b_reg=00000000, dout=00000000, rx_done_tick=1
Time=70990, rx=0, state=00, b_reg=00000000, dout=00000000, rx_done_tick=0
Time=71010, rx=0, state=01, b_reg=00000000, dout=00000000, rx_done_tick=0
Time=71170, rx=0, state=10, b_reg=00000000, dout=00000000, rx_done_tick=0
Time=77010, rx=0, state=11, b_reg=00000000, dout=00000000, rx_done_tick=0
Time=77310, rx=0, state=11, b_reg=00000000, dout=00000000, rx_done_tick=1
Time=77330, rx=0, state=00, b_reg=00000000, dout=00000000, rx_done_tick=0
Time=77350, rx=0, state=01, b_reg=00000000, dout=00000000, rx_done_tick=0
Time=77510, rx=0, state=10, b_reg=00000000, dout=00000000, rx_done_tick=0
Time=83310, rx=0, state=11, b_reg=00000000, dout=00000000, rx_done_tick=0
Time=83610, rx=0, state=11, b_reg=00000000, dout=00000000, rx_done_tick=1
Time=83630, rx=0, state=00, b_reg=00000000, dout=00000000, rx_done_tick=0
Time=83650, rx=0, state=01, b_reg=00000000, dout=00000000, rx_done_tick=0
Time=83810, rx=0, state=10, b_reg=00000000, dout=00000000, rx_done_tick=0
Time=89650, rx=0, state=11, b_reg=00000000, dout=00000000, rx_done_tick=0
Time=89950, rx=0, state=11, b_reg=00000000, dout=00000000, rx_done_tick=1
Time=89970, rx=0, state=00, b_reg=00000000, dout=00000000, rx_done_tick=0
Time=89990, rx=0, state=01, b_reg=00000000, dout=00000000, rx_done_tick=0
Time=90150, rx=0, state=10, b_reg=00000000, dout=00000000, rx_done_tick=0
Time=94330, rx=0, state=11, b_reg=00000000, dout=00000000, rx_done_tick=0
Time=96250, rx=0, state=11, b_reg=00000000, dout=00000000, rx_done_tick=1
Time=96270, rx=0, state=00, b_reg=00000000, dout=00000000, rx_done_tick=0
Time=96290, rx=0, state=01, b_reg=00000000, dout=00000000, rx_done_tick=0
Time=96450, rx=0, state=10, b_reg=00000000, dout=00000000, rx_done_tick=0
Time=100650, rx=0, state=11, b_reg=00000000, dout=00000000, rx_done_tick=0
Time=102590, rx=0, state=11, b_reg=00000000, dout=00000000, rx_done_tick=1
Time=102610, rx=0, state=00, b_reg=00000000, dout=00000000, rx_done_tick=0
Time=102630, rx=0, state=01, b_reg=00000000, dout=00000000, rx_done_tick=0
Time=102790, rx=0, state=10, b_reg=00000000, dout=00000000, rx_done_tick=0
Time=104267, rx=1, state=10, b_reg=00000000, dout=00000000, rx_done_tick=0
Time=106010, rx=1, state=10, b_reg=10000000, dout=10000000, rx_done_tick=0
Time=106330, rx=1, state=10, b_reg=11000000, dout=11000000, rx_done_tick=0
Time=106650, rx=1, state=10, b_reg=11100000, dout=11100000, rx_done_tick=0
Time=106970, rx=1, state=11, b_reg=11110000, dout=11110000, rx_done_tick=0
Time=107270, rx=1, state=11, b_reg=11110000, dout=11110000, rx_done_tick=1
Time=107290, rx=1, state=00, b_reg=11110000, dout=11110000, rx_done_tick=0
Time=156350, rx=0, state=00, b_reg=11110000, dout=11110000, rx_done_tick=0
Time=156370, rx=0, state=01, b_reg=11110000, dout=11110000, rx_done_tick=0
Time=158010, rx=0, state=10, b_reg=11110000, dout=11110000, rx_done_tick=0
Time=158330, rx=0, state=10, b_reg=01111000, dout=01111000, rx_done_tick=0
Time=158650, rx=0, state=10, b_reg=00111100, dout=00111100, rx_done_tick=0
Time=158970, rx=0, state=10, b_reg=00011110, dout=00011110, rx_done_tick=0
Time=159290, rx=0, state=10, b_reg=00001111, dout=00001111, rx_done_tick=0
Time=161230, rx=0, state=10, b_reg=00000111, dout=00000111, rx_done_tick=0
Time=161550, rx=0, state=10, b_reg=00000011, dout=00000011, rx_done_tick=0
Time=161870, rx=0, state=10, b_reg=00000001, dout=00000001, rx_done_tick=0
Time=162190, rx=0, state=11, b_reg=00000000, dout=00000000, rx_done_tick=0
Time=162490, rx=0, state=11, b_reg=00000000, dout=00000000, rx_done_tick=1
Time=162510, rx=0, state=00, b_reg=00000000, dout=00000000, rx_done_tick=0
Time=162530, rx=0, state=01, b_reg=00000000, dout=00000000, rx_done_tick=0
Time=162690, rx=0, state=10, b_reg=00000000, dout=00000000, rx_done_tick=0
Time=168530, rx=0, state=11, b_reg=00000000, dout=00000000, rx_done_tick=0
Time=168830, rx=0, state=11, b_reg=00000000, dout=00000000, rx_done_tick=1
Time=168850, rx=0, state=00, b_reg=00000000, dout=00000000, rx_done_tick=0
Time=168870, rx=0, state=01, b_reg=00000000, dout=00000000, rx_done_tick=0
Time=169030, rx=0, state=10, b_reg=00000000, dout=00000000, rx_done_tick=0
Time=174830, rx=0, state=11, b_reg=00000000, dout=00000000, rx_done_tick=0
Time=175130, rx=0, state=11, b_reg=00000000, dout=00000000, rx_done_tick=1
Time=175150, rx=0, state=00, b_reg=00000000, dout=00000000, rx_done_tick=0
Time=175170, rx=0, state=01, b_reg=00000000, dout=00000000, rx_done_tick=0
Time=175330, rx=0, state=10, b_reg=00000000, dout=00000000, rx_done_tick=0
Time=181170, rx=0, state=11, b_reg=00000000, dout=00000000, rx_done_tick=0
Time=181470, rx=0, state=11, b_reg=00000000, dout=00000000, rx_done_tick=1
Time=181490, rx=0, state=00, b_reg=00000000, dout=00000000, rx_done_tick=0
Time=181510, rx=0, state=01, b_reg=00000000, dout=00000000, rx_done_tick=0
Time=181670, rx=0, state=10, b_reg=00000000, dout=00000000, rx_done_tick=0
Time=187470, rx=0, state=11, b_reg=00000000, dout=00000000, rx_done_tick=0
Time=187770, rx=0, state=11, b_reg=00000000, dout=00000000, rx_done_tick=1
Time=187790, rx=0, state=00, b_reg=00000000, dout=00000000, rx_done_tick=0
Time=187810, rx=0, state=01, b_reg=00000000, dout=00000000, rx_done_tick=0
Time=187970, rx=0, state=10, b_reg=00000000, dout=00000000, rx_done_tick=0
Time=193810, rx=0, state=11, b_reg=00000000, dout=00000000, rx_done_tick=0
Time=194110, rx=0, state=11, b_reg=00000000, dout=00000000, rx_done_tick=1
Time=194130, rx=0, state=00, b_reg=00000000, dout=00000000, rx_done_tick=0
Time=194150, rx=0, state=01, b_reg=00000000, dout=00000000, rx_done_tick=0
Time=194310, rx=0, state=10, b_reg=00000000, dout=00000000, rx_done_tick=0
Time=198490, rx=0, state=11, b_reg=00000000, dout=00000000, rx_done_tick=0
Time=200410, rx=0, state=11, b_reg=00000000, dout=00000000, rx_done_tick=1
Time=200430, rx=0, state=00, b_reg=00000000, dout=00000000, rx_done_tick=0
Time=200450, rx=0, state=01, b_reg=00000000, dout=00000000, rx_done_tick=0
Time=200610, rx=0, state=10, b_reg=00000000, dout=00000000, rx_done_tick=0
Time=204810, rx=0, state=11, b_reg=00000000, dout=00000000, rx_done_tick=0
Time=206750, rx=0, state=11, b_reg=00000000, dout=00000000, rx_done_tick=1
Time=206770, rx=0, state=00, b_reg=00000000, dout=00000000, rx_done_tick=0
Time=206790, rx=0, state=01, b_reg=00000000, dout=00000000, rx_done_tick=0
Time=206950, rx=0, state=10, b_reg=00000000, dout=00000000, rx_done_tick=0
Time=208434, rx=1, state=10, b_reg=00000000, dout=00000000, rx_done_tick=0
Time=210170, rx=1, state=10, b_reg=10000000, dout=10000000, rx_done_tick=0
Time=210490, rx=1, state=10, b_reg=11000000, dout=11000000, rx_done_tick=0
Time=210810, rx=1, state=10, b_reg=11100000, dout=11100000, rx_done_tick=0
Time=211130, rx=1, state=11, b_reg=11110000, dout=11110000, rx_done_tick=0
Time=211430, rx=1, state=11, b_reg=11110000, dout=11110000, rx_done_tick=1
Time=211450, rx=1, state=00, b_reg=11110000, dout=11110000, rx_done_tick=0
Time=260517, rx=0, state=00, b_reg=11110000, dout=11110000, rx_done_tick=0
Time=260530, rx=0, state=01, b_reg=11110000, dout=11110000, rx_done_tick=0
Time=262170, rx=0, state=10, b_reg=11110000, dout=11110000, rx_done_tick=0
Time=262490, rx=0, state=10, b_reg=01111000, dout=01111000, rx_done_tick=0
Time=262810, rx=0, state=10, b_reg=00111100, dout=00111100, rx_done_tick=0
Time=263130, rx=0, state=10, b_reg=00011110, dout=00011110, rx_done_tick=0
Time=263450, rx=0, state=10, b_reg=00001111, dout=00001111, rx_done_tick=0
Time=265390, rx=0, state=10, b_reg=00000111, dout=00000111, rx_done_tick=0
Time=265710, rx=0, state=10, b_reg=00000011, dout=00000011, rx_done_tick=0
Time=266030, rx=0, state=10, b_reg=00000001, dout=00000001, rx_done_tick=0
Time=266350, rx=0, state=11, b_reg=00000000, dout=00000000, rx_done_tick=0
Time=266650, rx=0, state=11, b_reg=00000000, dout=00000000, rx_done_tick=1
Time=266670, rx=0, state=00, b_reg=00000000, dout=00000000, rx_done_tick=0
Time=266690, rx=0, state=01, b_reg=00000000, dout=00000000, rx_done_tick=0
Time=266850, rx=0, state=10, b_reg=00000000, dout=00000000, rx_done_tick=0
Time=272690, rx=0, state=11, b_reg=00000000, dout=00000000, rx_done_tick=0
Time=272990, rx=0, state=11, b_reg=00000000, dout=00000000, rx_done_tick=1
Time=273010, rx=0, state=00, b_reg=00000000, dout=00000000, rx_done_tick=0
Time=273030, rx=0, state=01, b_reg=00000000, dout=00000000, rx_done_tick=0
Time=273190, rx=0, state=10, b_reg=00000000, dout=00000000, rx_done_tick=0
Time=278990, rx=0, state=11, b_reg=00000000, dout=00000000, rx_done_tick=0
Time=279290, rx=0, state=11, b_reg=00000000, dout=00000000, rx_done_tick=1
Time=279310, rx=0, state=00, b_reg=00000000, dout=00000000, rx_done_tick=0
Time=279330, rx=0, state=01, b_reg=00000000, dout=00000000, rx_done_tick=0
Time=279490, rx=0, state=10, b_reg=00000000, dout=00000000, rx_done_tick=0
Time=285330, rx=0, state=11, b_reg=00000000, dout=00000000, rx_done_tick=0
Time=285630, rx=0, state=11, b_reg=00000000, dout=00000000, rx_done_tick=1
Time=285650, rx=0, state=00, b_reg=00000000, dout=00000000, rx_done_tick=0
Time=285670, rx=0, state=01, b_reg=00000000, dout=00000000, rx_done_tick=0
Time=285830, rx=0, state=10, b_reg=00000000, dout=00000000, rx_done_tick=0
Time=291630, rx=0, state=11, b_reg=00000000, dout=00000000, rx_done_tick=0
Time=291930, rx=0, state=11, b_reg=00000000, dout=00000000, rx_done_tick=1
Time=291950, rx=0, state=00, b_reg=00000000, dout=00000000, rx_done_tick=0
Time=291970, rx=0, state=01, b_reg=00000000, dout=00000000, rx_done_tick=0
Time=292130, rx=0, state=10, b_reg=00000000, dout=00000000, rx_done_tick=0
Time=297970, rx=0, state=11, b_reg=00000000, dout=00000000, rx_done_tick=0
Time=298270, rx=0, state=11, b_reg=00000000, dout=00000000, rx_done_tick=1
Time=298290, rx=0, state=00, b_reg=00000000, dout=00000000, rx_done_tick=0
Time=298310, rx=0, state=01, b_reg=00000000, dout=00000000, rx_done_tick=0
Time=298470, rx=0, state=10, b_reg=00000000, dout=00000000, rx_done_tick=0
Time=302650, rx=0, state=11, b_reg=00000000, dout=00000000, rx_done_tick=0
Time=304570, rx=0, state=11, b_reg=00000000, dout=00000000, rx_done_tick=1
Time=304590, rx=0, state=00, b_reg=00000000, dout=00000000, rx_done_tick=0
Time=304610, rx=0, state=01, b_reg=00000000, dout=00000000, rx_done_tick=0
Time=304770, rx=0, state=10, b_reg=00000000, dout=00000000, rx_done_tick=0
Time=308970, rx=0, state=11, b_reg=00000000, dout=00000000, rx_done_tick=0
Time=310910, rx=0, state=11, b_reg=00000000, dout=00000000, rx_done_tick=1
Time=310930, rx=0, state=00, b_reg=00000000, dout=00000000, rx_done_tick=0
Time=310950, rx=0, state=01, b_reg=00000000, dout=00000000, rx_done_tick=0
Time=311110, rx=0, state=10, b_reg=00000000, dout=00000000, rx_done_tick=0
Time=312600, rx=1, state=10, b_reg=00000000, dout=00000000, rx_done_tick=0
Time=314330, rx=1, state=10, b_reg=10000000, dout=10000000, rx_done_tick=0
Time=314650, rx=1, state=10, b_reg=11000000, dout=11000000, rx_done_tick=0
Time=314970, rx=1, state=10, b_reg=11100000, dout=11100000, rx_done_tick=0
Time=315290, rx=1, state=11, b_reg=11110000, dout=11110000, rx_done_tick=0
Time=315590, rx=1, state=11, b_reg=11110000, dout=11110000, rx_done_tick=1
Time=315610, rx=1, state=00, b_reg=11110000, dout=11110000, rx_done_tick=0
Time=364684, rx=0, state=00, b_reg=11110000, dout=11110000, rx_done_tick=0
Time=364690, rx=0, state=01, b_reg=11110000, dout=11110000, rx_done_tick=0
Time=366330, rx=0, state=10, b_reg=11110000, dout=11110000, rx_done_tick=0
Time=366650, rx=0, state=10, b_reg=01111000, dout=01111000, rx_done_tick=0
Time=366970, rx=0, state=10, b_reg=00111100, dout=00111100, rx_done_tick=0
Time=367290, rx=0, state=10, b_reg=00011110, dout=00011110, rx_done_tick=0
Time=367610, rx=0, state=10, b_reg=00001111, dout=00001111, rx_done_tick=0
Time=369550, rx=0, state=10, b_reg=00000111, dout=00000111, rx_done_tick=0
Time=369870, rx=0, state=10, b_reg=00000011, dout=00000011, rx_done_tick=0
Time=370190, rx=0, state=10, b_reg=00000001, dout=00000001, rx_done_tick=0
Time=370510, rx=0, state=11, b_reg=00000000, dout=00000000, rx_done_tick=0
Time=370810, rx=0, state=11, b_reg=00000000, dout=00000000, rx_done_tick=1
Time=370830, rx=0, state=00, b_reg=00000000, dout=00000000, rx_done_tick=0
Time=370850, rx=0, state=01, b_reg=00000000, dout=00000000, rx_done_tick=0
Time=371010, rx=0, state=10, b_reg=00000000, dout=00000000, rx_done_tick=0
Time=376850, rx=0, state=11, b_reg=00000000, dout=00000000, rx_done_tick=0
Time=377150, rx=0, state=11, b_reg=00000000, dout=00000000, rx_done_tick=1
Time=377170, rx=0, state=00, b_reg=00000000, dout=00000000, rx_done_tick=0
Time=377190, rx=0, state=01, b_reg=00000000, dout=00000000, rx_done_tick=0
Time=377350, rx=0, state=10, b_reg=00000000, dout=00000000, rx_done_tick=0
Time=383150, rx=0, state=11, b_reg=00000000, dout=00000000, rx_done_tick=0
Time=383450, rx=0, state=11, b_reg=00000000, dout=00000000, rx_done_tick=1
Time=383470, rx=0, state=00, b_reg=00000000, dout=00000000, rx_done_tick=0
Time=383490, rx=0, state=01, b_reg=00000000, dout=00000000, rx_done_tick=0
Time=383650, rx=0, state=10, b_reg=00000000, dout=00000000, rx_done_tick=0
Time=389490, rx=0, state=11, b_reg=00000000, dout=00000000, rx_done_tick=0
Time=389790, rx=0, state=11, b_reg=00000000, dout=00000000, rx_done_tick=1
Time=389810, rx=0, state=00, b_reg=00000000, dout=00000000, rx_done_tick=0
Time=389830, rx=0, state=01, b_reg=00000000, dout=00000000, rx_done_tick=0
Time=389990, rx=0, state=10, b_reg=00000000, dout=00000000, rx_done_tick=0
Time=395790, rx=0, state=11, b_reg=00000000, dout=00000000, rx_done_tick=0
Time=396090, rx=0, state=11, b_reg=00000000, dout=00000000, rx_done_tick=1
Time=396110, rx=0, state=00, b_reg=00000000, dout=00000000, rx_done_tick=0
Time=396130, rx=0, state=01, b_reg=00000000, dout=00000000, rx_done_tick=0
Time=396290, rx=0, state=10, b_reg=00000000, dout=00000000, rx_done_tick=0
Time=402130, rx=0, state=11, b_reg=00000000, dout=00000000, rx_done_tick=0
Time=402430, rx=0, state=11, b_reg=00000000, dout=00000000, rx_done_tick=1
Time=402450, rx=0, state=00, b_reg=00000000, dout=00000000, rx_done_tick=0
Time=402470, rx=0, state=01, b_reg=00000000, dout=00000000, rx_done_tick=0
Time=402630, rx=0, state=10, b_reg=00000000, dout=00000000, rx_done_tick=0
Time=406810, rx=0, state=11, b_reg=00000000, dout=00000000, rx_done_tick=0
Time=408730, rx=0, state=11, b_reg=00000000, dout=00000000, rx_done_tick=1
Time=408750, rx=0, state=00, b_reg=00000000, dout=00000000, rx_done_tick=0
Time=408770, rx=0, state=01, b_reg=00000000, dout=00000000, rx_done_tick=0
Time=408930, rx=0, state=10, b_reg=00000000, dout=00000000, rx_done_tick=0
Time=413130, rx=0, state=11, b_reg=00000000, dout=00000000, rx_done_tick=0
Time=415070, rx=0, state=11, b_reg=00000000, dout=00000000, rx_done_tick=1
Time=415090, rx=0, state=00, b_reg=00000000, dout=00000000, rx_done_tick=0
Time=415110, rx=0, state=01, b_reg=00000000, dout=00000000, rx_done_tick=0
Time=415270, rx=0, state=10, b_reg=00000000, dout=00000000, rx_done_tick=0
Time=416767, rx=1, state=10, b_reg=00000000, dout=00000000, rx_done_tick=0
Time=418490, rx=1, state=10, b_reg=10000000, dout=10000000, rx_done_tick=0
Time=418810, rx=1, state=10, b_reg=11000000, dout=11000000, rx_done_tick=0
Time=419130, rx=1, state=10, b_reg=11100000, dout=11100000, rx_done_tick=0
Time=419450, rx=1, state=11, b_reg=11110000, dout=11110000, rx_done_tick=0
Time=419750, rx=1, state=11, b_reg=11110000, dout=11110000, rx_done_tick=1
Time=419770, rx=1, state=00, b_reg=11110000, dout=11110000, rx_done_tick=0
Stopped at time : 573017400 ps :  in File "/home/ise/code/UART/v1_4/uart_rx_test.v" Line 91 
# exit 0
